EESchema Schematic File Version 4
LIBS:UPS-cache
EELAYER 29 0
EELAYER END
$Descr A4 11693 8268
encoding utf-8
Sheet 2 4
Title ""
Date ""
Rev ""
Comp ""
Comment1 ""
Comment2 ""
Comment3 ""
Comment4 ""
$EndDescr
Text Notes 7350 7500 0    50   ~ 0
Battery Monitoring Subcircuit  - Dylan White\n
Text Notes 8150 7650 0    50   ~ 0
1 June 2021\n
Text Notes 10550 7650 0    50   ~ 0
0\n
$Comp
L SamacSys_Parts:AD8040ARZ IC2
U 1 1 60B6582C
P 4200 4650
F 0 "IC2" H 4850 4915 50  0000 C CNN
F 1 "AD8040ARZ" H 4850 4824 50  0000 C CNN
F 2 "SamacSys_Parts:SOIC127P600X175-14N" H 5350 4750 50  0001 L CNN
F 3 "http://uk.rs-online.com/web/p/products/4968427P" H 5350 4650 50  0001 L CNN
F 4 "AD8040ARZ, Quad Operational Amplifier R-R, 3, 5, 9V, 14-Pin SOIC" H 5350 4550 50  0001 L CNN "Description"
F 5 "1.75" H 5350 4450 50  0001 L CNN "Height"
F 6 "4968427P" H 5350 4350 50  0001 L CNN "RS Part Number"
F 7 "http://uk.rs-online.com/web/p/products/4968427P" H 5350 4250 50  0001 L CNN "RS Price/Stock"
F 8 "Analog Devices" H 5350 4150 50  0001 L CNN "Manufacturer_Name"
F 9 "AD8040ARZ" H 5350 4050 50  0001 L CNN "Manufacturer_Part_Number"
	1    4200 4650
	1    0    0    -1  
$EndComp
Text HLabel 1850 2300 0    50   Input ~ 0
reg_in
Wire Wire Line
	1850 2300 2100 2300
Text Label 2100 2300 0    50   ~ 0
5V
$Comp
L Device:R_US R2
U 1 1 60B69739
P 1250 3650
F 0 "R2" H 1318 3696 50  0000 L CNN
F 1 "82k" H 1318 3605 50  0000 L CNN
F 2 "Resistor_SMD:R_0805_2012Metric" V 1290 3640 50  0001 C CNN
F 3 "~" H 1250 3650 50  0001 C CNN
	1    1250 3650
	1    0    0    -1  
$EndComp
$Comp
L Device:R_US R1
U 1 1 60B6C1E4
P 1250 3200
F 0 "R1" H 1318 3246 50  0000 L CNN
F 1 "18k" H 1318 3155 50  0000 L CNN
F 2 "Resistor_SMD:R_0805_2012Metric" V 1290 3190 50  0001 C CNN
F 3 "~" H 1250 3200 50  0001 C CNN
	1    1250 3200
	1    0    0    -1  
$EndComp
Text Label 1250 2850 0    50   ~ 0
5V
Wire Wire Line
	1250 2850 1250 3050
Wire Wire Line
	1250 3350 1250 3450
$Comp
L power:GND #PWR0106
U 1 1 60B6C9B8
P 1250 3800
F 0 "#PWR0106" H 1250 3550 50  0001 C CNN
F 1 "GND" H 1255 3627 50  0000 C CNN
F 2 "" H 1250 3800 50  0001 C CNN
F 3 "" H 1250 3800 50  0001 C CNN
	1    1250 3800
	1    0    0    -1  
$EndComp
Wire Wire Line
	1250 3450 1400 3450
Connection ~ 1250 3450
Wire Wire Line
	1250 3450 1250 3500
$Comp
L Device:R_US R6
U 1 1 60B786C7
P 1850 3650
F 0 "R6" H 1918 3696 50  0000 L CNN
F 1 "68k" H 1918 3605 50  0000 L CNN
F 2 "Resistor_SMD:R_0805_2012Metric" V 1890 3640 50  0001 C CNN
F 3 "~" H 1850 3650 50  0001 C CNN
	1    1850 3650
	1    0    0    -1  
$EndComp
$Comp
L Device:R_US R5
U 1 1 60B786CD
P 1850 3200
F 0 "R5" H 1918 3246 50  0000 L CNN
F 1 "18k" H 1918 3155 50  0000 L CNN
F 2 "Resistor_SMD:R_0805_2012Metric" V 1890 3190 50  0001 C CNN
F 3 "~" H 1850 3200 50  0001 C CNN
	1    1850 3200
	1    0    0    -1  
$EndComp
Text Label 1850 2850 0    50   ~ 0
5V
Wire Wire Line
	1850 2850 1850 3050
Wire Wire Line
	1850 3350 1850 3450
$Comp
L power:GND #PWR0107
U 1 1 60B786D6
P 1850 3800
F 0 "#PWR0107" H 1850 3550 50  0001 C CNN
F 1 "GND" H 1855 3627 50  0000 C CNN
F 2 "" H 1850 3800 50  0001 C CNN
F 3 "" H 1850 3800 50  0001 C CNN
	1    1850 3800
	1    0    0    -1  
$EndComp
Wire Wire Line
	1850 3450 2000 3450
Connection ~ 1850 3450
Wire Wire Line
	1850 3450 1850 3500
$Comp
L Device:R_US R10
U 1 1 60B78E1A
P 2400 3650
F 0 "R10" H 2468 3696 50  0000 L CNN
F 1 "82k" H 2468 3605 50  0000 L CNN
F 2 "Resistor_SMD:R_0805_2012Metric" V 2440 3640 50  0001 C CNN
F 3 "~" H 2400 3650 50  0001 C CNN
	1    2400 3650
	1    0    0    -1  
$EndComp
$Comp
L Device:R_US R9
U 1 1 60B78E20
P 2400 3200
F 0 "R9" H 2468 3246 50  0000 L CNN
F 1 "27k" H 2468 3155 50  0000 L CNN
F 2 "Resistor_SMD:R_0805_2012Metric" V 2440 3190 50  0001 C CNN
F 3 "~" H 2400 3200 50  0001 C CNN
	1    2400 3200
	1    0    0    -1  
$EndComp
Text Label 2400 2850 0    50   ~ 0
5V
Wire Wire Line
	2400 2850 2400 3050
Wire Wire Line
	2400 3350 2400 3450
$Comp
L power:GND #PWR0108
U 1 1 60B78E29
P 2400 3800
F 0 "#PWR0108" H 2400 3550 50  0001 C CNN
F 1 "GND" H 2405 3627 50  0000 C CNN
F 2 "" H 2400 3800 50  0001 C CNN
F 3 "" H 2400 3800 50  0001 C CNN
	1    2400 3800
	1    0    0    -1  
$EndComp
Wire Wire Line
	2400 3450 2550 3450
Connection ~ 2400 3450
Wire Wire Line
	2400 3450 2400 3500
$Comp
L Device:R_US R4
U 1 1 60B7A1F2
P 1250 5100
F 0 "R4" H 1318 5146 50  0000 L CNN
F 1 "39k" H 1318 5055 50  0000 L CNN
F 2 "Resistor_SMD:R_0805_2012Metric" V 1290 5090 50  0001 C CNN
F 3 "~" H 1250 5100 50  0001 C CNN
	1    1250 5100
	1    0    0    -1  
$EndComp
$Comp
L Device:R_US R3
U 1 1 60B7A1F8
P 1250 4650
F 0 "R3" H 1318 4696 50  0000 L CNN
F 1 "15k" H 1318 4605 50  0000 L CNN
F 2 "Resistor_SMD:R_0805_2012Metric" V 1290 4640 50  0001 C CNN
F 3 "~" H 1250 4650 50  0001 C CNN
	1    1250 4650
	1    0    0    -1  
$EndComp
Text Label 1250 4300 0    50   ~ 0
5V
Wire Wire Line
	1250 4300 1250 4500
Wire Wire Line
	1250 4800 1250 4900
$Comp
L power:GND #PWR0109
U 1 1 60B7A201
P 1250 5250
F 0 "#PWR0109" H 1250 5000 50  0001 C CNN
F 1 "GND" H 1255 5077 50  0000 C CNN
F 2 "" H 1250 5250 50  0001 C CNN
F 3 "" H 1250 5250 50  0001 C CNN
	1    1250 5250
	1    0    0    -1  
$EndComp
Wire Wire Line
	1250 4900 1400 4900
Connection ~ 1250 4900
Wire Wire Line
	1250 4900 1250 4950
$Comp
L Device:R_US R8
U 1 1 60B7AA48
P 1850 5100
F 0 "R8" H 1918 5146 50  0000 L CNN
F 1 "27k" H 1918 5055 50  0000 L CNN
F 2 "Resistor_SMD:R_0805_2012Metric" V 1890 5090 50  0001 C CNN
F 3 "~" H 1850 5100 50  0001 C CNN
	1    1850 5100
	1    0    0    -1  
$EndComp
$Comp
L Device:R_US R7
U 1 1 60B7AA4E
P 1850 4650
F 0 "R7" H 1918 4696 50  0000 L CNN
F 1 "12k" H 1918 4605 50  0000 L CNN
F 2 "Resistor_SMD:R_0805_2012Metric" V 1890 4640 50  0001 C CNN
F 3 "~" H 1850 4650 50  0001 C CNN
	1    1850 4650
	1    0    0    -1  
$EndComp
Text Label 1850 4300 0    50   ~ 0
5V
Wire Wire Line
	1850 4300 1850 4500
Wire Wire Line
	1850 4800 1850 4900
$Comp
L power:GND #PWR0110
U 1 1 60B7AA57
P 1850 5250
F 0 "#PWR0110" H 1850 5000 50  0001 C CNN
F 1 "GND" H 1855 5077 50  0000 C CNN
F 2 "" H 1850 5250 50  0001 C CNN
F 3 "" H 1850 5250 50  0001 C CNN
	1    1850 5250
	1    0    0    -1  
$EndComp
Wire Wire Line
	1850 4900 2000 4900
Connection ~ 1850 4900
Wire Wire Line
	1850 4900 1850 4950
$Comp
L Device:R_US R12
U 1 1 60B7BF9A
P 2400 5100
F 0 "R12" H 2468 5146 50  0000 L CNN
F 1 "47k" H 2468 5055 50  0000 L CNN
F 2 "Resistor_SMD:R_0805_2012Metric" V 2440 5090 50  0001 C CNN
F 3 "~" H 2400 5100 50  0001 C CNN
	1    2400 5100
	1    0    0    -1  
$EndComp
$Comp
L Device:R_US R11
U 1 1 60B7BFA0
P 2400 4650
F 0 "R11" H 2468 4696 50  0000 L CNN
F 1 "22k" H 2468 4605 50  0000 L CNN
F 2 "Resistor_SMD:R_0805_2012Metric" V 2440 4640 50  0001 C CNN
F 3 "~" H 2400 4650 50  0001 C CNN
	1    2400 4650
	1    0    0    -1  
$EndComp
Text Label 2400 4300 0    50   ~ 0
5V
Wire Wire Line
	2400 4300 2400 4500
Wire Wire Line
	2400 4800 2400 4900
$Comp
L power:GND #PWR0111
U 1 1 60B7BFA9
P 2400 5250
F 0 "#PWR0111" H 2400 5000 50  0001 C CNN
F 1 "GND" H 2405 5077 50  0000 C CNN
F 2 "" H 2400 5250 50  0001 C CNN
F 3 "" H 2400 5250 50  0001 C CNN
	1    2400 5250
	1    0    0    -1  
$EndComp
Wire Wire Line
	2400 4900 2550 4900
Connection ~ 2400 4900
Wire Wire Line
	2400 4900 2400 4950
Text Label 1400 3450 0    50   ~ 0
4.1
Text Label 2000 3450 0    50   ~ 0
3.96
Text Label 2550 3450 0    50   ~ 0
3.75
Text Label 1400 4900 0    50   ~ 0
3.61
Text Label 2000 4900 0    50   ~ 0
3.505
Text Label 2550 4900 0    50   ~ 0
3.4
Text HLabel 1850 2500 0    50   Input ~ 0
bat_in
Wire Wire Line
	1850 2500 2100 2500
Text Label 2100 2500 0    50   ~ 0
bat
Text Label 4200 3250 2    50   ~ 0
bat
Text Label 4200 4850 2    50   ~ 0
bat
Text Label 4200 5050 2    50   ~ 0
bat
Text Label 5500 3250 0    50   ~ 0
bat
Text Label 5500 3450 0    50   ~ 0
bat
Text Label 4200 3350 2    50   ~ 0
5V
Wire Wire Line
	5500 3350 5850 3350
$Comp
L SamacSys_Parts:AD8040ARZ IC1
U 1 1 60B66E5F
P 4200 3050
F 0 "IC1" H 4850 3315 50  0000 C CNN
F 1 "AD8040ARZ" H 4850 3224 50  0000 C CNN
F 2 "SamacSys_Parts:SOIC127P600X175-14N" H 5350 3150 50  0001 L CNN
F 3 "http://uk.rs-online.com/web/p/products/4968427P" H 5350 3050 50  0001 L CNN
F 4 "AD8040ARZ, Quad Operational Amplifier R-R, 3, 5, 9V, 14-Pin SOIC" H 5350 2950 50  0001 L CNN "Description"
F 5 "1.75" H 5350 2850 50  0001 L CNN "Height"
F 6 "4968427P" H 5350 2750 50  0001 L CNN "RS Part Number"
F 7 "http://uk.rs-online.com/web/p/products/4968427P" H 5350 2650 50  0001 L CNN "RS Price/Stock"
F 8 "Analog Devices" H 5350 2550 50  0001 L CNN "Manufacturer_Name"
F 9 "AD8040ARZ" H 5350 2450 50  0001 L CNN "Manufacturer_Part_Number"
	1    4200 3050
	1    0    0    -1  
$EndComp
$Comp
L power:GND #PWR0112
U 1 1 60B899F1
P 5850 3350
F 0 "#PWR0112" H 5850 3100 50  0001 C CNN
F 1 "GND" V 5855 3222 50  0000 R CNN
F 2 "" H 5850 3350 50  0001 C CNN
F 3 "" H 5850 3350 50  0001 C CNN
	1    5850 3350
	0    -1   -1   0   
$EndComp
Text Label 4200 3450 2    50   ~ 0
bat
Wire Wire Line
	4200 3150 4050 3150
Wire Wire Line
	4200 3550 4050 3550
Text Label 4050 3150 2    50   ~ 0
4.1
Text Label 4050 3550 2    50   ~ 0
3.96
Wire Wire Line
	5500 3150 5700 3150
Wire Wire Line
	5500 3550 5700 3550
Text Label 5700 3550 0    50   ~ 0
3.75
Text Label 5700 3150 0    50   ~ 0
3.61
Text Label 4200 4950 2    50   ~ 0
5V
Wire Wire Line
	5500 4950 5850 4950
$Comp
L power:GND #PWR0113
U 1 1 60B9324B
P 5850 4950
F 0 "#PWR0113" H 5850 4700 50  0001 C CNN
F 1 "GND" V 5855 4822 50  0000 R CNN
F 2 "" H 5850 4950 50  0001 C CNN
F 3 "" H 5850 4950 50  0001 C CNN
	1    5850 4950
	0    -1   -1   0   
$EndComp
Wire Wire Line
	4200 4750 4000 4750
Wire Wire Line
	4200 5150 4000 5150
Text Label 4000 4750 2    50   ~ 0
3.505
Text Label 4000 5150 2    50   ~ 0
3.4
Wire Wire Line
	4200 4650 4200 4450
Wire Wire Line
	4200 5250 4200 5450
Wire Wire Line
	4200 3050 4200 2800
Wire Wire Line
	4200 3650 4200 3900
Wire Wire Line
	5500 3050 5500 2800
Wire Wire Line
	5500 3650 5500 3900
Text HLabel 4200 2800 2    50   Input ~ 0
100%
Text HLabel 4200 3900 2    50   Input ~ 0
80%
Text HLabel 5500 2800 2    50   Input ~ 0
30%
Text HLabel 5500 3900 2    50   Input ~ 0
50%
Text HLabel 4200 4450 2    50   Input ~ 0
15%
Text HLabel 4200 5450 2    50   Input ~ 0
shutdown
NoConn ~ 5500 4650
NoConn ~ 5500 4750
NoConn ~ 5500 4850
NoConn ~ 6300 6050
NoConn ~ 5500 5050
NoConn ~ 5500 5150
NoConn ~ 5500 5250
$EndSCHEMATC
