EESchema Schematic File Version 4
LIBS:UPS-cache
EELAYER 29 0
EELAYER END
$Descr A4 11693 8268
encoding utf-8
Sheet 3 4
Title ""
Date ""
Rev ""
Comp ""
Comment1 ""
Comment2 ""
Comment3 ""
Comment4 ""
$EndDescr
Text Notes 7650 7550 0    50   ~ 0
LED schematic\n\n
$Comp
L Device:R R13
U 1 1 60B6AE67
P 2050 1250
F 0 "R13" V 2257 1250 50  0000 C CNN
F 1 "70" V 2166 1250 50  0000 C CNN
F 2 "Resistor_SMD:R_0805_2012Metric" V 1980 1250 50  0001 C CNN
F 3 "~" H 2050 1250 50  0001 C CNN
	1    2050 1250
	0    -1   -1   0   
$EndComp
$Comp
L Device:LED D6
U 1 1 60B6FA97
P 2900 1250
F 0 "D6" H 2893 995 50  0000 C CNN
F 1 "LED" H 2893 1086 50  0000 C CNN
F 2 "LED_SMD:LED_1206_3216Metric" H 2900 1250 50  0001 C CNN
F 3 "~" H 2900 1250 50  0001 C CNN
	1    2900 1250
	-1   0    0    1   
$EndComp
Wire Wire Line
	2750 1250 2200 1250
$Comp
L Device:LED D5
U 1 1 60B7ABE4
P 2150 1550
F 0 "D5" H 2143 1767 50  0000 C CNN
F 1 "LED" H 2143 1676 50  0000 C CNN
F 2 "LED_SMD:LED_1206_3216Metric" H 2150 1550 50  0001 C CNN
F 3 "~" H 2150 1550 50  0001 C CNN
	1    2150 1550
	1    0    0    -1  
$EndComp
$Comp
L Device:R R14
U 1 1 60B7B477
P 2750 1550
F 0 "R14" V 2543 1550 50  0000 C CNN
F 1 "140" V 2634 1550 50  0000 C CNN
F 2 "Resistor_SMD:R_0805_2012Metric" V 2680 1550 50  0001 C CNN
F 3 "~" H 2750 1550 50  0001 C CNN
	1    2750 1550
	0    1    1    0   
$EndComp
$Comp
L Device:R R16
U 1 1 60B7DC38
P 2950 2500
F 0 "R16" V 2743 2500 50  0000 C CNN
F 1 "140" V 2834 2500 50  0000 C CNN
F 2 "Resistor_SMD:R_0805_2012Metric" V 2880 2500 50  0001 C CNN
F 3 "~" H 2950 2500 50  0001 C CNN
	1    2950 2500
	0    1    1    0   
$EndComp
$Comp
L Device:LED D4
U 1 1 60B7DC3E
P 2100 2500
F 0 "D4" H 2250 2400 50  0000 C CNN
F 1 "LED" H 2093 2336 50  0000 C CNN
F 2 "LED_SMD:LED_1206_3216Metric" H 2100 2500 50  0001 C CNN
F 3 "~" H 2100 2500 50  0001 C CNN
	1    2100 2500
	1    0    0    -1  
$EndComp
Wire Wire Line
	2250 2500 2800 2500
$Comp
L Device:R R17
U 1 1 60B7E98B
P 2950 3350
F 0 "R17" V 2743 3350 50  0000 C CNN
F 1 "140" V 2834 3350 50  0000 C CNN
F 2 "Resistor_SMD:R_0805_2012Metric" V 2880 3350 50  0001 C CNN
F 3 "~" H 2950 3350 50  0001 C CNN
	1    2950 3350
	0    1    1    0   
$EndComp
$Comp
L Device:LED D3
U 1 1 60B7E991
P 2100 3350
F 0 "D3" H 2093 3095 50  0000 C CNN
F 1 "LED" H 2093 3186 50  0000 C CNN
F 2 "LED_SMD:LED_1206_3216Metric" H 2100 3350 50  0001 C CNN
F 3 "~" H 2100 3350 50  0001 C CNN
	1    2100 3350
	1    0    0    -1  
$EndComp
Wire Wire Line
	2250 3350 2800 3350
$Comp
L Device:R R18
U 1 1 60B7F43F
P 2950 4300
F 0 "R18" V 2743 4300 50  0000 C CNN
F 1 "140" V 2834 4300 50  0000 C CNN
F 2 "Resistor_SMD:R_0805_2012Metric" V 2880 4300 50  0001 C CNN
F 3 "~" H 2950 4300 50  0001 C CNN
	1    2950 4300
	0    1    1    0   
$EndComp
$Comp
L Device:LED D2
U 1 1 60B7F445
P 2100 4300
F 0 "D2" H 2093 4045 50  0000 C CNN
F 1 "LED" H 2093 4136 50  0000 C CNN
F 2 "LED_SMD:LED_1206_3216Metric" H 2100 4300 50  0001 C CNN
F 3 "~" H 2100 4300 50  0001 C CNN
	1    2100 4300
	1    0    0    -1  
$EndComp
Wire Wire Line
	2250 4300 2800 4300
$Comp
L Device:R R15
U 1 1 60B7FEA6
P 2900 5250
F 0 "R15" V 2693 5250 50  0000 C CNN
F 1 "155" V 2784 5250 50  0000 C CNN
F 2 "Resistor_SMD:R_0805_2012Metric" V 2830 5250 50  0001 C CNN
F 3 "~" H 2900 5250 50  0001 C CNN
	1    2900 5250
	0    1    1    0   
$EndComp
$Comp
L Device:LED D1
U 1 1 60B7FEAC
P 2050 5250
F 0 "D1" H 2043 4995 50  0000 C CNN
F 1 "LED" H 2043 5086 50  0000 C CNN
F 2 "LED_SMD:LED_1206_3216Metric" H 2050 5250 50  0001 C CNN
F 3 "~" H 2050 5250 50  0001 C CNN
	1    2050 5250
	1    0    0    -1  
$EndComp
Wire Wire Line
	2200 5250 2750 5250
Wire Wire Line
	2000 1550 1900 1550
Wire Wire Line
	1900 1550 1900 1600
Wire Wire Line
	2300 1550 2600 1550
Wire Wire Line
	1950 2500 1900 2500
Wire Wire Line
	1900 2500 1900 2550
Wire Wire Line
	1900 3400 1900 3350
Wire Wire Line
	1900 3350 1950 3350
Wire Wire Line
	1950 4300 1900 4300
Wire Wire Line
	1900 5300 1900 5250
$Comp
L power:GND #PWR01
U 1 1 60B83B58
P 3750 6200
F 0 "#PWR01" H 3750 5950 50  0001 C CNN
F 1 "GND" H 3755 6027 50  0000 C CNN
F 2 "" H 3750 6200 50  0001 C CNN
F 3 "" H 3750 6200 50  0001 C CNN
	1    3750 6200
	1    0    0    -1  
$EndComp
Wire Wire Line
	1900 5900 1900 6200
Wire Wire Line
	1900 6200 3750 6200
Connection ~ 3750 6200
Wire Wire Line
	3750 4900 3750 6200
Wire Wire Line
	1900 4900 3750 4900
Wire Wire Line
	1900 3150 3750 3150
Connection ~ 3750 4900
Wire Wire Line
	1900 4000 3750 4000
Wire Wire Line
	3750 3150 3750 4000
Connection ~ 3750 4000
Wire Wire Line
	3750 4000 3750 4900
Wire Wire Line
	3750 2200 3750 3150
Connection ~ 3750 3150
Wire Wire Line
	1900 2200 3750 2200
Wire Wire Line
	3050 1250 3750 1250
Wire Wire Line
	3750 1250 3750 2200
Connection ~ 3750 2200
Text Label 1600 800  0    50   ~ 0
5V
Wire Wire Line
	1600 800  1150 800 
Text Label 1200 1250 0    50   ~ 0
5V
Wire Wire Line
	1300 5700 1600 5700
Wire Wire Line
	1300 4700 1600 4700
Wire Wire Line
	1250 3800 1600 3800
Wire Wire Line
	1250 2950 1600 2950
Wire Wire Line
	1250 2000 1600 2000
Wire Wire Line
	1200 1250 1900 1250
Text HLabel 1150 800  0    50   Input ~ 0
reg_in
Text Label 3350 2500 0    50   ~ 0
5V
Text Label 3250 1550 0    50   ~ 0
5V
Text Label 3400 3350 0    50   ~ 0
5V
Text Label 3400 4300 0    50   ~ 0
5V
Text Label 3400 5250 0    50   ~ 0
5V
Wire Wire Line
	3400 5250 3050 5250
Wire Wire Line
	3100 4300 3400 4300
Wire Wire Line
	3400 3350 3100 3350
Wire Wire Line
	3350 2500 3100 2500
Wire Wire Line
	3250 1550 2900 1550
Text HLabel 1250 2000 0    50   Input ~ 0
full
Text HLabel 1250 2950 0    50   Input ~ 0
80
Text HLabel 1250 3800 0    50   Input ~ 0
50
Text HLabel 1300 4700 0    50   Input ~ 0
30
Text HLabel 1300 5700 0    50   Input ~ 0
15
$Comp
L SamacSys_Parts:IRLML6344TRPBF Q1
U 1 1 60B7EF04
P 1600 2000
F 0 "Q1" H 2030 2146 50  0000 L CNN
F 1 "IRLML6344TRPBF" H 2030 2055 50  0000 L CNN
F 2 "SamacSys_Parts:SOT95P237X112-3N" H 2050 1950 50  0001 L CNN
F 3 "http://uk.rs-online.com/web/p/products/7377225P" H 2050 1850 50  0001 L CNN
F 4 "IRLML6344TRPBF N-channel MOSFET Transistor, 5 A, 30 V, 3-Pin SOT-23" H 2050 1750 50  0001 L CNN "Description"
F 5 "1.12" H 2050 1650 50  0001 L CNN "Height"
F 6 "7377225P" H 2050 1550 50  0001 L CNN "RS Part Number"
F 7 "http://uk.rs-online.com/web/p/products/7377225P" H 2050 1450 50  0001 L CNN "RS Price/Stock"
F 8 "Infineon" H 2050 1350 50  0001 L CNN "Manufacturer_Name"
F 9 "IRLML6344TRPBF" H 2050 1250 50  0001 L CNN "Manufacturer_Part_Number"
F 10 "70411467" H 2050 1150 50  0001 L CNN "Allied_Number"
	1    1600 2000
	1    0    0    -1  
$EndComp
$Comp
L SamacSys_Parts:IRLML6344TRPBF Q2
U 1 1 60B852FB
P 1600 2950
F 0 "Q2" H 2030 3096 50  0000 L CNN
F 1 "IRLML6344TRPBF" H 2030 3005 50  0000 L CNN
F 2 "SamacSys_Parts:SOT95P237X112-3N" H 2050 2900 50  0001 L CNN
F 3 "http://uk.rs-online.com/web/p/products/7377225P" H 2050 2800 50  0001 L CNN
F 4 "IRLML6344TRPBF N-channel MOSFET Transistor, 5 A, 30 V, 3-Pin SOT-23" H 2050 2700 50  0001 L CNN "Description"
F 5 "1.12" H 2050 2600 50  0001 L CNN "Height"
F 6 "7377225P" H 2050 2500 50  0001 L CNN "RS Part Number"
F 7 "http://uk.rs-online.com/web/p/products/7377225P" H 2050 2400 50  0001 L CNN "RS Price/Stock"
F 8 "Infineon" H 2050 2300 50  0001 L CNN "Manufacturer_Name"
F 9 "IRLML6344TRPBF" H 2050 2200 50  0001 L CNN "Manufacturer_Part_Number"
F 10 "70411467" H 2050 2100 50  0001 L CNN "Allied_Number"
	1    1600 2950
	1    0    0    -1  
$EndComp
$Comp
L SamacSys_Parts:IRLML6344TRPBF Q3
U 1 1 60B88EA3
P 1600 3800
F 0 "Q3" H 2030 3946 50  0000 L CNN
F 1 "IRLML6344TRPBF" H 2030 3855 50  0000 L CNN
F 2 "SamacSys_Parts:SOT95P237X112-3N" H 2050 3750 50  0001 L CNN
F 3 "http://uk.rs-online.com/web/p/products/7377225P" H 2050 3650 50  0001 L CNN
F 4 "IRLML6344TRPBF N-channel MOSFET Transistor, 5 A, 30 V, 3-Pin SOT-23" H 2050 3550 50  0001 L CNN "Description"
F 5 "1.12" H 2050 3450 50  0001 L CNN "Height"
F 6 "7377225P" H 2050 3350 50  0001 L CNN "RS Part Number"
F 7 "http://uk.rs-online.com/web/p/products/7377225P" H 2050 3250 50  0001 L CNN "RS Price/Stock"
F 8 "Infineon" H 2050 3150 50  0001 L CNN "Manufacturer_Name"
F 9 "IRLML6344TRPBF" H 2050 3050 50  0001 L CNN "Manufacturer_Part_Number"
F 10 "70411467" H 2050 2950 50  0001 L CNN "Allied_Number"
	1    1600 3800
	1    0    0    -1  
$EndComp
$Comp
L SamacSys_Parts:IRLML6344TRPBF Q4
U 1 1 60B8C75C
P 1600 4700
F 0 "Q4" H 2030 4846 50  0000 L CNN
F 1 "IRLML6344TRPBF" H 2030 4755 50  0000 L CNN
F 2 "SamacSys_Parts:SOT95P237X112-3N" H 2050 4650 50  0001 L CNN
F 3 "http://uk.rs-online.com/web/p/products/7377225P" H 2050 4550 50  0001 L CNN
F 4 "IRLML6344TRPBF N-channel MOSFET Transistor, 5 A, 30 V, 3-Pin SOT-23" H 2050 4450 50  0001 L CNN "Description"
F 5 "1.12" H 2050 4350 50  0001 L CNN "Height"
F 6 "7377225P" H 2050 4250 50  0001 L CNN "RS Part Number"
F 7 "http://uk.rs-online.com/web/p/products/7377225P" H 2050 4150 50  0001 L CNN "RS Price/Stock"
F 8 "Infineon" H 2050 4050 50  0001 L CNN "Manufacturer_Name"
F 9 "IRLML6344TRPBF" H 2050 3950 50  0001 L CNN "Manufacturer_Part_Number"
F 10 "70411467" H 2050 3850 50  0001 L CNN "Allied_Number"
	1    1600 4700
	1    0    0    -1  
$EndComp
$Comp
L SamacSys_Parts:IRLML6344TRPBF Q5
U 1 1 60B8DDB7
P 1600 5700
F 0 "Q5" H 2030 5846 50  0000 L CNN
F 1 "IRLML6344TRPBF" H 2030 5755 50  0000 L CNN
F 2 "SamacSys_Parts:SOT95P237X112-3N" H 2050 5650 50  0001 L CNN
F 3 "http://uk.rs-online.com/web/p/products/7377225P" H 2050 5550 50  0001 L CNN
F 4 "IRLML6344TRPBF N-channel MOSFET Transistor, 5 A, 30 V, 3-Pin SOT-23" H 2050 5450 50  0001 L CNN "Description"
F 5 "1.12" H 2050 5350 50  0001 L CNN "Height"
F 6 "7377225P" H 2050 5250 50  0001 L CNN "RS Part Number"
F 7 "http://uk.rs-online.com/web/p/products/7377225P" H 2050 5150 50  0001 L CNN "RS Price/Stock"
F 8 "Infineon" H 2050 5050 50  0001 L CNN "Manufacturer_Name"
F 9 "IRLML6344TRPBF" H 2050 4950 50  0001 L CNN "Manufacturer_Part_Number"
F 10 "70411467" H 2050 4850 50  0001 L CNN "Allied_Number"
	1    1600 5700
	1    0    0    -1  
$EndComp
$EndSCHEMATC
